^C:\UNI STUFF\[SEM3\INB371\NEW ASSIGNMENT 1\NEW ASSIGNMENT 1\DEBUG\MAIN.OBJ|C:\UNI STUFF\[SEM3\INB371\NEW ASSIGNMENT 1\NEW ASSIGNMENT 1\DEBUG\NEW ASSIGNMENT 1.EXE.EMBED.MANIFEST.RES|C:\UNI STUFF\[SEM3\INB371\NEW ASSIGNMENT 1\NEW ASSIGNMENT 1\DEBUG\SCHEDULE.OBJ
C:\PROGRAM FILES (X86)\MICROSOFT SDKS\WINDOWS\V7.0A\LIB\KERNEL32.LIB
C:\PROGRAM FILES (X86)\MICROSOFT SDKS\WINDOWS\V7.0A\LIB\USER32.LIB
C:\PROGRAM FILES (X86)\MICROSOFT SDKS\WINDOWS\V7.0A\LIB\GDI32.LIB
C:\PROGRAM FILES (X86)\MICROSOFT SDKS\WINDOWS\V7.0A\LIB\WINSPOOL.LIB
C:\PROGRAM FILES (X86)\MICROSOFT SDKS\WINDOWS\V7.0A\LIB\COMDLG32.LIB
C:\PROGRAM FILES (X86)\MICROSOFT SDKS\WINDOWS\V7.0A\LIB\ADVAPI32.LIB
C:\PROGRAM FILES (X86)\MICROSOFT SDKS\WINDOWS\V7.0A\LIB\SHELL32.LIB
C:\PROGRAM FILES (X86)\MICROSOFT SDKS\WINDOWS\V7.0A\LIB\OLE32.LIB
C:\PROGRAM FILES (X86)\MICROSOFT SDKS\WINDOWS\V7.0A\LIB\OLEAUT32.LIB
C:\PROGRAM FILES (X86)\MICROSOFT SDKS\WINDOWS\V7.0A\LIB\UUID.LIB
C:\PROGRAM FILES (X86)\MICROSOFT SDKS\WINDOWS\V7.0A\LIB\ODBC32.LIB
C:\PROGRAM FILES (X86)\MICROSOFT SDKS\WINDOWS\V7.0A\LIB\ODBCCP32.LIB
C:\UNI STUFF\[SEM3\INB371\NEW ASSIGNMENT 1\NEW ASSIGNMENT 1\DEBUG\NEW ASSIGNMENT 1.EXE.EMBED.MANIFEST.RES
C:\UNI STUFF\[SEM3\INB371\NEW ASSIGNMENT 1\NEW ASSIGNMENT 1\DEBUG\MAIN.OBJ
C:\UNI STUFF\[SEM3\INB371\NEW ASSIGNMENT 1\NEW ASSIGNMENT 1\DEBUG\SCHEDULE.OBJ
C:\WINDOWS\SYSTEM32\TZRES.DLL
C:\UNI STUFF\[SEM3\INB371\NEW ASSIGNMENT 1\DEBUG\NEW ASSIGNMENT 1.EXE
C:\UNI STUFF\[SEM3\INB371\NEW ASSIGNMENT 1\DEBUG\NEW ASSIGNMENT 1.PDB
C:\WINDOWS\GLOBALIZATION\SORTING\SORTDEFAULT.NLS
C:\PROGRAM FILES (X86)\MICROSOFT VISUAL STUDIO 10.0\VC\LIB\MSVCPRTD.LIB
C:\PROGRAM FILES (X86)\MICROSOFT VISUAL STUDIO 10.0\VC\LIB\MSVCRTD.LIB
C:\PROGRAM FILES (X86)\MICROSOFT VISUAL STUDIO 10.0\VC\LIB\OLDNAMES.LIB
