^C:\UNI STUFF\[SEM3\INB371\NEW ASSIGNMENT 1\NEW ASSIGNMENT 1\DEBUG\MAIN.OBJ|C:\UNI STUFF\[SEM3\INB371\NEW ASSIGNMENT 1\NEW ASSIGNMENT 1\DEBUG\NEW ASSIGNMENT 1.EXE.EMBED.MANIFEST.RES|C:\UNI STUFF\[SEM3\INB371\NEW ASSIGNMENT 1\NEW ASSIGNMENT 1\DEBUG\SCHEDULE.OBJ
/ERRORREPORT:PROMPT /OUT:"C:\Uni Stuff\[Sem3\INB371\New Assignment 1\Debug\New Assignment 1.exe" /INCREMENTAL /NOLOGO kernel32.lib user32.lib gdi32.lib winspool.lib comdlg32.lib advapi32.lib shell32.lib ole32.lib oleaut32.lib uuid.lib odbc32.lib odbccp32.lib /MANIFEST /ManifestFile:"Debug\New Assignment 1.exe.intermediate.manifest" /MANIFESTUAC:"level='asInvoker' uiAccess='false'" /DEBUG /PDB:"C:\Uni Stuff\[Sem3\INB371\New Assignment 1\Debug\New Assignment 1.pdb" /SUBSYSTEM:CONSOLE /TLBID:1 /DYNAMICBASE /NXCOMPAT /IMPLIB:"C:\Uni Stuff\[Sem3\INB371\New Assignment 1\Debug\New Assignment 1.lib" /MACHINE:X86 "Debug\New Assignment 1.exe.embed.manifest.res"
Debug\Main.obj
Debug\Schedule.obj
