^C:\UNI STUFF\[SEM3\INB371\NEW ASSIGNMENT 1\NEW ASSIGNMENT 1\DEBUG\MAIN.OBJ|C:\UNI STUFF\[SEM3\INB371\NEW ASSIGNMENT 1\NEW ASSIGNMENT 1\DEBUG\NEW ASSIGNMENT 1.EXE.EMBED.MANIFEST.RES|C:\UNI STUFF\[SEM3\INB371\NEW ASSIGNMENT 1\NEW ASSIGNMENT 1\DEBUG\SCHEDULE.OBJ
C:\UNI STUFF\[SEM3\INB371\NEW ASSIGNMENT 1\DEBUG\NEW ASSIGNMENT 1.ILK
C:\UNI STUFF\[SEM3\INB371\NEW ASSIGNMENT 1\DEBUG\NEW ASSIGNMENT 1.EXE
C:\UNI STUFF\[SEM3\INB371\NEW ASSIGNMENT 1\NEW ASSIGNMENT 1\DEBUG\NEW ASSIGNMENT 1.EXE.INTERMEDIATE.MANIFEST
C:\UNI STUFF\[SEM3\INB371\NEW ASSIGNMENT 1\DEBUG\NEW ASSIGNMENT 1.PDB
