^C:\USERS\HAYDN\DOCUMENTS\INB371\ASSIGNMENT2\ASSIGNMENT 2 TEMPS\ASSIGNMENT 2\ASSIGNMENT 2\DEBUG\ASSIGNMENT 2.EXE.EMBED.MANIFEST.RES|C:\USERS\HAYDN\DOCUMENTS\INB371\ASSIGNMENT2\ASSIGNMENT 2 TEMPS\ASSIGNMENT 2\ASSIGNMENT 2\DEBUG\CUSTOMER.OBJ|C:\USERS\HAYDN\DOCUMENTS\INB371\ASSIGNMENT2\ASSIGNMENT 2 TEMPS\ASSIGNMENT 2\ASSIGNMENT 2\DEBUG\CUSTOMERCOLLECTION.OBJ|C:\USERS\HAYDN\DOCUMENTS\INB371\ASSIGNMENT2\ASSIGNMENT 2 TEMPS\ASSIGNMENT 2\ASSIGNMENT 2\DEBUG\CUSTOMERCOLLECTIONNODE.OBJ|C:\USERS\HAYDN\DOCUMENTS\INB371\ASSIGNMENT2\ASSIGNMENT 2 TEMPS\ASSIGNMENT 2\ASSIGNMENT 2\DEBUG\MOVIE.OBJ|C:\USERS\HAYDN\DOCUMENTS\INB371\ASSIGNMENT2\ASSIGNMENT 2 TEMPS\ASSIGNMENT 2\ASSIGNMENT 2\DEBUG\MOVIECOLLECTION.OBJ|C:\USERS\HAYDN\DOCUMENTS\INB371\ASSIGNMENT2\ASSIGNMENT 2 TEMPS\ASSIGNMENT 2\ASSIGNMENT 2\DEBUG\MOVIECOLLECTIONNODE.OBJ|C:\USERS\HAYDN\DOCUMENTS\INB371\ASSIGNMENT2\ASSIGNMENT 2 TEMPS\ASSIGNMENT 2\ASSIGNMENT 2\DEBUG\VIDEOSTOREMANAGEMENT.OBJ
C:\PROGRAMDATA\NVIDIA CORPORATION\DRS\NVDRSDB1.BIN
C:\WINDOWS\GLOBALIZATION\SORTING\SORTDEFAULT.NLS
C:\PROGRAM FILES (X86)\MICROSOFT SDKS\WINDOWS\V7.0A\LIB\KERNEL32.LIB
C:\PROGRAM FILES (X86)\MICROSOFT SDKS\WINDOWS\V7.0A\LIB\USER32.LIB
C:\PROGRAM FILES (X86)\MICROSOFT SDKS\WINDOWS\V7.0A\LIB\GDI32.LIB
C:\PROGRAM FILES (X86)\MICROSOFT SDKS\WINDOWS\V7.0A\LIB\WINSPOOL.LIB
C:\PROGRAM FILES (X86)\MICROSOFT SDKS\WINDOWS\V7.0A\LIB\COMDLG32.LIB
C:\PROGRAM FILES (X86)\MICROSOFT SDKS\WINDOWS\V7.0A\LIB\ADVAPI32.LIB
C:\PROGRAM FILES (X86)\MICROSOFT SDKS\WINDOWS\V7.0A\LIB\SHELL32.LIB
C:\PROGRAM FILES (X86)\MICROSOFT SDKS\WINDOWS\V7.0A\LIB\OLE32.LIB
C:\PROGRAM FILES (X86)\MICROSOFT SDKS\WINDOWS\V7.0A\LIB\OLEAUT32.LIB
C:\PROGRAM FILES (X86)\MICROSOFT SDKS\WINDOWS\V7.0A\LIB\UUID.LIB
C:\PROGRAM FILES (X86)\MICROSOFT SDKS\WINDOWS\V7.0A\LIB\ODBC32.LIB
C:\PROGRAM FILES (X86)\MICROSOFT SDKS\WINDOWS\V7.0A\LIB\ODBCCP32.LIB
C:\USERS\HAYDN\DOCUMENTS\INB371\ASSIGNMENT2\ASSIGNMENT 2 TEMPS\ASSIGNMENT 2\ASSIGNMENT 2\DEBUG\ASSIGNMENT 2.EXE.EMBED.MANIFEST.RES
C:\USERS\HAYDN\DOCUMENTS\INB371\ASSIGNMENT2\ASSIGNMENT 2 TEMPS\ASSIGNMENT 2\ASSIGNMENT 2\DEBUG\CUSTOMER.OBJ
C:\USERS\HAYDN\DOCUMENTS\INB371\ASSIGNMENT2\ASSIGNMENT 2 TEMPS\ASSIGNMENT 2\ASSIGNMENT 2\DEBUG\CUSTOMERCOLLECTION.OBJ
C:\USERS\HAYDN\DOCUMENTS\INB371\ASSIGNMENT2\ASSIGNMENT 2 TEMPS\ASSIGNMENT 2\ASSIGNMENT 2\DEBUG\CUSTOMERCOLLECTIONNODE.OBJ
C:\USERS\HAYDN\DOCUMENTS\INB371\ASSIGNMENT2\ASSIGNMENT 2 TEMPS\ASSIGNMENT 2\ASSIGNMENT 2\DEBUG\MOVIE.OBJ
C:\USERS\HAYDN\DOCUMENTS\INB371\ASSIGNMENT2\ASSIGNMENT 2 TEMPS\ASSIGNMENT 2\ASSIGNMENT 2\DEBUG\MOVIECOLLECTION.OBJ
C:\USERS\HAYDN\DOCUMENTS\INB371\ASSIGNMENT2\ASSIGNMENT 2 TEMPS\ASSIGNMENT 2\ASSIGNMENT 2\DEBUG\MOVIECOLLECTIONNODE.OBJ
C:\USERS\HAYDN\DOCUMENTS\INB371\ASSIGNMENT2\ASSIGNMENT 2 TEMPS\ASSIGNMENT 2\ASSIGNMENT 2\DEBUG\VIDEOSTOREMANAGEMENT.OBJ
C:\WINDOWS\SYSTEM32\TZRES.DLL
C:\USERS\HAYDN\DOCUMENTS\INB371\ASSIGNMENT2\ASSIGNMENT 2 TEMPS\ASSIGNMENT 2\DEBUG\ASSIGNMENT 2.EXE
C:\USERS\HAYDN\DOCUMENTS\INB371\ASSIGNMENT2\ASSIGNMENT 2 TEMPS\ASSIGNMENT 2\DEBUG\ASSIGNMENT 2.PDB
C:\PROGRAM FILES (X86)\MICROSOFT VISUAL STUDIO 10.0\VC\LIB\MSVCPRTD.LIB
C:\PROGRAM FILES (X86)\MICROSOFT VISUAL STUDIO 10.0\VC\LIB\MSVCRTD.LIB
C:\PROGRAM FILES (X86)\MICROSOFT VISUAL STUDIO 10.0\VC\LIB\OLDNAMES.LIB
^C:\USERS\HAYDN\DOCUMENTS\INB371\ASSIGNMENT2\V12\ASSIGNMENT 2\ASSIGNMENT 2\DEBUG\ASSIGNMENT 2.EXE.EMBED.MANIFEST.RES|C:\USERS\HAYDN\DOCUMENTS\INB371\ASSIGNMENT2\V12\ASSIGNMENT 2\ASSIGNMENT 2\DEBUG\CUSTOMER.OBJ|C:\USERS\HAYDN\DOCUMENTS\INB371\ASSIGNMENT2\V12\ASSIGNMENT 2\ASSIGNMENT 2\DEBUG\CUSTOMERCOLLECTION.OBJ|C:\USERS\HAYDN\DOCUMENTS\INB371\ASSIGNMENT2\V12\ASSIGNMENT 2\ASSIGNMENT 2\DEBUG\CUSTOMERCOLLECTIONNODE.OBJ|C:\USERS\HAYDN\DOCUMENTS\INB371\ASSIGNMENT2\V12\ASSIGNMENT 2\ASSIGNMENT 2\DEBUG\MOVIE.OBJ|C:\USERS\HAYDN\DOCUMENTS\INB371\ASSIGNMENT2\V12\ASSIGNMENT 2\ASSIGNMENT 2\DEBUG\MOVIECOLLECTION.OBJ|C:\USERS\HAYDN\DOCUMENTS\INB371\ASSIGNMENT2\V12\ASSIGNMENT 2\ASSIGNMENT 2\DEBUG\MOVIECOLLECTIONNODE.OBJ|C:\USERS\HAYDN\DOCUMENTS\INB371\ASSIGNMENT2\V12\ASSIGNMENT 2\ASSIGNMENT 2\DEBUG\VIDEOSTOREMANAGEMENT.OBJ
C:\PROGRAMDATA\NVIDIA CORPORATION\DRS\NVDRSDB1.BIN
C:\WINDOWS\GLOBALIZATION\SORTING\SORTDEFAULT.NLS
C:\PROGRAM FILES (X86)\MICROSOFT SDKS\WINDOWS\V7.0A\LIB\KERNEL32.LIB
C:\PROGRAM FILES (X86)\MICROSOFT SDKS\WINDOWS\V7.0A\LIB\USER32.LIB
C:\PROGRAM FILES (X86)\MICROSOFT SDKS\WINDOWS\V7.0A\LIB\GDI32.LIB
C:\PROGRAM FILES (X86)\MICROSOFT SDKS\WINDOWS\V7.0A\LIB\WINSPOOL.LIB
C:\PROGRAM FILES (X86)\MICROSOFT SDKS\WINDOWS\V7.0A\LIB\COMDLG32.LIB
C:\PROGRAM FILES (X86)\MICROSOFT SDKS\WINDOWS\V7.0A\LIB\ADVAPI32.LIB
C:\PROGRAM FILES (X86)\MICROSOFT SDKS\WINDOWS\V7.0A\LIB\SHELL32.LIB
C:\PROGRAM FILES (X86)\MICROSOFT SDKS\WINDOWS\V7.0A\LIB\OLE32.LIB
C:\PROGRAM FILES (X86)\MICROSOFT SDKS\WINDOWS\V7.0A\LIB\OLEAUT32.LIB
C:\PROGRAM FILES (X86)\MICROSOFT SDKS\WINDOWS\V7.0A\LIB\UUID.LIB
C:\PROGRAM FILES (X86)\MICROSOFT SDKS\WINDOWS\V7.0A\LIB\ODBC32.LIB
C:\PROGRAM FILES (X86)\MICROSOFT SDKS\WINDOWS\V7.0A\LIB\ODBCCP32.LIB
C:\USERS\HAYDN\DOCUMENTS\INB371\ASSIGNMENT2\V12\ASSIGNMENT 2\ASSIGNMENT 2\DEBUG\ASSIGNMENT 2.EXE.EMBED.MANIFEST.RES
C:\USERS\HAYDN\DOCUMENTS\INB371\ASSIGNMENT2\V12\ASSIGNMENT 2\ASSIGNMENT 2\DEBUG\CUSTOMER.OBJ
C:\USERS\HAYDN\DOCUMENTS\INB371\ASSIGNMENT2\V12\ASSIGNMENT 2\ASSIGNMENT 2\DEBUG\CUSTOMERCOLLECTION.OBJ
C:\USERS\HAYDN\DOCUMENTS\INB371\ASSIGNMENT2\V12\ASSIGNMENT 2\ASSIGNMENT 2\DEBUG\CUSTOMERCOLLECTIONNODE.OBJ
C:\USERS\HAYDN\DOCUMENTS\INB371\ASSIGNMENT2\V12\ASSIGNMENT 2\ASSIGNMENT 2\DEBUG\MOVIE.OBJ
C:\USERS\HAYDN\DOCUMENTS\INB371\ASSIGNMENT2\V12\ASSIGNMENT 2\ASSIGNMENT 2\DEBUG\MOVIECOLLECTION.OBJ
C:\USERS\HAYDN\DOCUMENTS\INB371\ASSIGNMENT2\V12\ASSIGNMENT 2\ASSIGNMENT 2\DEBUG\MOVIECOLLECTIONNODE.OBJ
C:\USERS\HAYDN\DOCUMENTS\INB371\ASSIGNMENT2\V12\ASSIGNMENT 2\ASSIGNMENT 2\DEBUG\VIDEOSTOREMANAGEMENT.OBJ
C:\WINDOWS\SYSTEM32\TZRES.DLL
C:\USERS\HAYDN\DOCUMENTS\INB371\ASSIGNMENT2\V12\ASSIGNMENT 2\DEBUG\ASSIGNMENT 2.EXE
C:\USERS\HAYDN\DOCUMENTS\INB371\ASSIGNMENT2\V12\ASSIGNMENT 2\DEBUG\ASSIGNMENT 2.PDB
C:\PROGRAM FILES (X86)\MICROSOFT VISUAL STUDIO 10.0\VC\LIB\MSVCPRTD.LIB
C:\PROGRAM FILES (X86)\MICROSOFT VISUAL STUDIO 10.0\VC\LIB\MSVCRTD.LIB
C:\PROGRAM FILES (X86)\MICROSOFT VISUAL STUDIO 10.0\VC\LIB\OLDNAMES.LIB
^C:\USERS\HAYDN\DOCUMENTS\INB371\ASSIGNMENT2\V13\ASSIGNMENT 2\ASSIGNMENT 2\DEBUG\ASSIGNMENT 2.EXE.EMBED.MANIFEST.RES|C:\USERS\HAYDN\DOCUMENTS\INB371\ASSIGNMENT2\V13\ASSIGNMENT 2\ASSIGNMENT 2\DEBUG\CUSTOMER.OBJ|C:\USERS\HAYDN\DOCUMENTS\INB371\ASSIGNMENT2\V13\ASSIGNMENT 2\ASSIGNMENT 2\DEBUG\CUSTOMERCOLLECTION.OBJ|C:\USERS\HAYDN\DOCUMENTS\INB371\ASSIGNMENT2\V13\ASSIGNMENT 2\ASSIGNMENT 2\DEBUG\CUSTOMERCOLLECTIONNODE.OBJ|C:\USERS\HAYDN\DOCUMENTS\INB371\ASSIGNMENT2\V13\ASSIGNMENT 2\ASSIGNMENT 2\DEBUG\MOVIE.OBJ|C:\USERS\HAYDN\DOCUMENTS\INB371\ASSIGNMENT2\V13\ASSIGNMENT 2\ASSIGNMENT 2\DEBUG\MOVIECOLLECTION.OBJ|C:\USERS\HAYDN\DOCUMENTS\INB371\ASSIGNMENT2\V13\ASSIGNMENT 2\ASSIGNMENT 2\DEBUG\MOVIECOLLECTIONNODE.OBJ|C:\USERS\HAYDN\DOCUMENTS\INB371\ASSIGNMENT2\V13\ASSIGNMENT 2\ASSIGNMENT 2\DEBUG\VIDEOSTOREMANAGEMENT.OBJ
C:\PROGRAMDATA\NVIDIA CORPORATION\DRS\NVDRSDB1.BIN
C:\WINDOWS\GLOBALIZATION\SORTING\SORTDEFAULT.NLS
C:\PROGRAM FILES (X86)\MICROSOFT SDKS\WINDOWS\V7.0A\LIB\KERNEL32.LIB
C:\PROGRAM FILES (X86)\MICROSOFT SDKS\WINDOWS\V7.0A\LIB\USER32.LIB
C:\PROGRAM FILES (X86)\MICROSOFT SDKS\WINDOWS\V7.0A\LIB\GDI32.LIB
C:\PROGRAM FILES (X86)\MICROSOFT SDKS\WINDOWS\V7.0A\LIB\WINSPOOL.LIB
C:\PROGRAM FILES (X86)\MICROSOFT SDKS\WINDOWS\V7.0A\LIB\COMDLG32.LIB
C:\PROGRAM FILES (X86)\MICROSOFT SDKS\WINDOWS\V7.0A\LIB\ADVAPI32.LIB
C:\PROGRAM FILES (X86)\MICROSOFT SDKS\WINDOWS\V7.0A\LIB\SHELL32.LIB
C:\PROGRAM FILES (X86)\MICROSOFT SDKS\WINDOWS\V7.0A\LIB\OLE32.LIB
C:\PROGRAM FILES (X86)\MICROSOFT SDKS\WINDOWS\V7.0A\LIB\OLEAUT32.LIB
C:\PROGRAM FILES (X86)\MICROSOFT SDKS\WINDOWS\V7.0A\LIB\UUID.LIB
C:\PROGRAM FILES (X86)\MICROSOFT SDKS\WINDOWS\V7.0A\LIB\ODBC32.LIB
C:\PROGRAM FILES (X86)\MICROSOFT SDKS\WINDOWS\V7.0A\LIB\ODBCCP32.LIB
C:\USERS\HAYDN\DOCUMENTS\INB371\ASSIGNMENT2\V13\ASSIGNMENT 2\ASSIGNMENT 2\DEBUG\ASSIGNMENT 2.EXE.EMBED.MANIFEST.RES
C:\USERS\HAYDN\DOCUMENTS\INB371\ASSIGNMENT2\V13\ASSIGNMENT 2\ASSIGNMENT 2\DEBUG\CUSTOMER.OBJ
C:\USERS\HAYDN\DOCUMENTS\INB371\ASSIGNMENT2\V13\ASSIGNMENT 2\ASSIGNMENT 2\DEBUG\CUSTOMERCOLLECTION.OBJ
C:\USERS\HAYDN\DOCUMENTS\INB371\ASSIGNMENT2\V13\ASSIGNMENT 2\ASSIGNMENT 2\DEBUG\CUSTOMERCOLLECTIONNODE.OBJ
C:\USERS\HAYDN\DOCUMENTS\INB371\ASSIGNMENT2\V13\ASSIGNMENT 2\ASSIGNMENT 2\DEBUG\MOVIE.OBJ
C:\USERS\HAYDN\DOCUMENTS\INB371\ASSIGNMENT2\V13\ASSIGNMENT 2\ASSIGNMENT 2\DEBUG\MOVIECOLLECTION.OBJ
C:\USERS\HAYDN\DOCUMENTS\INB371\ASSIGNMENT2\V13\ASSIGNMENT 2\ASSIGNMENT 2\DEBUG\MOVIECOLLECTIONNODE.OBJ
C:\USERS\HAYDN\DOCUMENTS\INB371\ASSIGNMENT2\V13\ASSIGNMENT 2\ASSIGNMENT 2\DEBUG\VIDEOSTOREMANAGEMENT.OBJ
C:\WINDOWS\SYSTEM32\TZRES.DLL
C:\USERS\HAYDN\DOCUMENTS\INB371\ASSIGNMENT2\V13\ASSIGNMENT 2\DEBUG\ASSIGNMENT 2.EXE
C:\USERS\HAYDN\DOCUMENTS\INB371\ASSIGNMENT2\V13\ASSIGNMENT 2\DEBUG\ASSIGNMENT 2.PDB
C:\PROGRAM FILES (X86)\MICROSOFT VISUAL STUDIO 10.0\VC\LIB\MSVCPRTD.LIB
C:\PROGRAM FILES (X86)\MICROSOFT VISUAL STUDIO 10.0\VC\LIB\MSVCRTD.LIB
C:\PROGRAM FILES (X86)\MICROSOFT VISUAL STUDIO 10.0\VC\LIB\OLDNAMES.LIB
^C:\USERS\HAYDN\DOCUMENTS\INB371\ASSIGNMENT2\V14\ASSIGNMENT 2\ASSIGNMENT 2\DEBUG\ASSIGNMENT 2.EXE.EMBED.MANIFEST.RES|C:\USERS\HAYDN\DOCUMENTS\INB371\ASSIGNMENT2\V14\ASSIGNMENT 2\ASSIGNMENT 2\DEBUG\CUSTOMER.OBJ|C:\USERS\HAYDN\DOCUMENTS\INB371\ASSIGNMENT2\V14\ASSIGNMENT 2\ASSIGNMENT 2\DEBUG\CUSTOMERCOLLECTION.OBJ|C:\USERS\HAYDN\DOCUMENTS\INB371\ASSIGNMENT2\V14\ASSIGNMENT 2\ASSIGNMENT 2\DEBUG\CUSTOMERCOLLECTIONNODE.OBJ|C:\USERS\HAYDN\DOCUMENTS\INB371\ASSIGNMENT2\V14\ASSIGNMENT 2\ASSIGNMENT 2\DEBUG\MOVIE.OBJ|C:\USERS\HAYDN\DOCUMENTS\INB371\ASSIGNMENT2\V14\ASSIGNMENT 2\ASSIGNMENT 2\DEBUG\MOVIECOLLECTION.OBJ|C:\USERS\HAYDN\DOCUMENTS\INB371\ASSIGNMENT2\V14\ASSIGNMENT 2\ASSIGNMENT 2\DEBUG\MOVIECOLLECTIONNODE.OBJ|C:\USERS\HAYDN\DOCUMENTS\INB371\ASSIGNMENT2\V14\ASSIGNMENT 2\ASSIGNMENT 2\DEBUG\MOVIELIST.OBJ|C:\USERS\HAYDN\DOCUMENTS\INB371\ASSIGNMENT2\V14\ASSIGNMENT 2\ASSIGNMENT 2\DEBUG\MOVIELISTNODE.OBJ|C:\USERS\HAYDN\DOCUMENTS\INB371\ASSIGNMENT2\V14\ASSIGNMENT 2\ASSIGNMENT 2\DEBUG\VIDEOSTOREMANAGEMENT.OBJ
C:\PROGRAMDATA\NVIDIA CORPORATION\DRS\NVDRSDB1.BIN
C:\WINDOWS\GLOBALIZATION\SORTING\SORTDEFAULT.NLS
C:\PROGRAM FILES (X86)\MICROSOFT SDKS\WINDOWS\V7.0A\LIB\KERNEL32.LIB
C:\PROGRAM FILES (X86)\MICROSOFT SDKS\WINDOWS\V7.0A\LIB\USER32.LIB
C:\PROGRAM FILES (X86)\MICROSOFT SDKS\WINDOWS\V7.0A\LIB\GDI32.LIB
C:\PROGRAM FILES (X86)\MICROSOFT SDKS\WINDOWS\V7.0A\LIB\WINSPOOL.LIB
C:\PROGRAM FILES (X86)\MICROSOFT SDKS\WINDOWS\V7.0A\LIB\COMDLG32.LIB
C:\PROGRAM FILES (X86)\MICROSOFT SDKS\WINDOWS\V7.0A\LIB\ADVAPI32.LIB
C:\PROGRAM FILES (X86)\MICROSOFT SDKS\WINDOWS\V7.0A\LIB\SHELL32.LIB
C:\PROGRAM FILES (X86)\MICROSOFT SDKS\WINDOWS\V7.0A\LIB\OLE32.LIB
C:\PROGRAM FILES (X86)\MICROSOFT SDKS\WINDOWS\V7.0A\LIB\OLEAUT32.LIB
C:\PROGRAM FILES (X86)\MICROSOFT SDKS\WINDOWS\V7.0A\LIB\UUID.LIB
C:\PROGRAM FILES (X86)\MICROSOFT SDKS\WINDOWS\V7.0A\LIB\ODBC32.LIB
C:\PROGRAM FILES (X86)\MICROSOFT SDKS\WINDOWS\V7.0A\LIB\ODBCCP32.LIB
C:\USERS\HAYDN\DOCUMENTS\INB371\ASSIGNMENT2\V14\ASSIGNMENT 2\ASSIGNMENT 2\DEBUG\ASSIGNMENT 2.EXE.EMBED.MANIFEST.RES
C:\USERS\HAYDN\DOCUMENTS\INB371\ASSIGNMENT2\V14\ASSIGNMENT 2\ASSIGNMENT 2\DEBUG\CUSTOMER.OBJ
C:\USERS\HAYDN\DOCUMENTS\INB371\ASSIGNMENT2\V14\ASSIGNMENT 2\ASSIGNMENT 2\DEBUG\CUSTOMERCOLLECTION.OBJ
C:\USERS\HAYDN\DOCUMENTS\INB371\ASSIGNMENT2\V14\ASSIGNMENT 2\ASSIGNMENT 2\DEBUG\CUSTOMERCOLLECTIONNODE.OBJ
C:\USERS\HAYDN\DOCUMENTS\INB371\ASSIGNMENT2\V14\ASSIGNMENT 2\ASSIGNMENT 2\DEBUG\MOVIE.OBJ
C:\USERS\HAYDN\DOCUMENTS\INB371\ASSIGNMENT2\V14\ASSIGNMENT 2\ASSIGNMENT 2\DEBUG\MOVIECOLLECTION.OBJ
C:\USERS\HAYDN\DOCUMENTS\INB371\ASSIGNMENT2\V14\ASSIGNMENT 2\ASSIGNMENT 2\DEBUG\MOVIECOLLECTIONNODE.OBJ
C:\USERS\HAYDN\DOCUMENTS\INB371\ASSIGNMENT2\V14\ASSIGNMENT 2\ASSIGNMENT 2\DEBUG\MOVIELIST.OBJ
C:\USERS\HAYDN\DOCUMENTS\INB371\ASSIGNMENT2\V14\ASSIGNMENT 2\ASSIGNMENT 2\DEBUG\MOVIELISTNODE.OBJ
C:\USERS\HAYDN\DOCUMENTS\INB371\ASSIGNMENT2\V14\ASSIGNMENT 2\ASSIGNMENT 2\DEBUG\VIDEOSTOREMANAGEMENT.OBJ
C:\WINDOWS\SYSTEM32\TZRES.DLL
C:\USERS\HAYDN\DOCUMENTS\INB371\ASSIGNMENT2\V14\ASSIGNMENT 2\DEBUG\ASSIGNMENT 2.EXE
C:\USERS\HAYDN\DOCUMENTS\INB371\ASSIGNMENT2\V14\ASSIGNMENT 2\DEBUG\ASSIGNMENT 2.PDB
C:\PROGRAM FILES (X86)\MICROSOFT VISUAL STUDIO 10.0\VC\LIB\MSVCPRTD.LIB
C:\PROGRAM FILES (X86)\MICROSOFT VISUAL STUDIO 10.0\VC\LIB\MSVCRTD.LIB
C:\PROGRAM FILES (X86)\MICROSOFT VISUAL STUDIO 10.0\VC\LIB\OLDNAMES.LIB
C:\PROGRAM FILES (X86)\MICROSOFT VISUAL STUDIO 10.0\VC\BIN\LINK.EXE
C:\WINDOWS\SYSTEM32\RSAENH.DLL
C:\PROGRAM FILES (X86)\MICROSOFT VISUAL STUDIO 10.0\VC\BIN\CVTRES.EXE
^C:\USERS\ADMINISTRATOR\DESKTOP\ASSIGNMENT 2 V16\ASSIGNMENT 2\ASSIGNMENT 2\DEBUG\ASSIGNMENT 2.EXE.EMBED.MANIFEST.RES|C:\USERS\ADMINISTRATOR\DESKTOP\ASSIGNMENT 2 V16\ASSIGNMENT 2\ASSIGNMENT 2\DEBUG\CUSTOMER.OBJ|C:\USERS\ADMINISTRATOR\DESKTOP\ASSIGNMENT 2 V16\ASSIGNMENT 2\ASSIGNMENT 2\DEBUG\CUSTOMERCOLLECTION.OBJ|C:\USERS\ADMINISTRATOR\DESKTOP\ASSIGNMENT 2 V16\ASSIGNMENT 2\ASSIGNMENT 2\DEBUG\CUSTOMERCOLLECTIONNODE.OBJ|C:\USERS\ADMINISTRATOR\DESKTOP\ASSIGNMENT 2 V16\ASSIGNMENT 2\ASSIGNMENT 2\DEBUG\MOVIE.OBJ|C:\USERS\ADMINISTRATOR\DESKTOP\ASSIGNMENT 2 V16\ASSIGNMENT 2\ASSIGNMENT 2\DEBUG\MOVIECOLLECTION.OBJ|C:\USERS\ADMINISTRATOR\DESKTOP\ASSIGNMENT 2 V16\ASSIGNMENT 2\ASSIGNMENT 2\DEBUG\MOVIECOLLECTIONNODE.OBJ|C:\USERS\ADMINISTRATOR\DESKTOP\ASSIGNMENT 2 V16\ASSIGNMENT 2\ASSIGNMENT 2\DEBUG\MOVIELIST.OBJ|C:\USERS\ADMINISTRATOR\DESKTOP\ASSIGNMENT 2 V16\ASSIGNMENT 2\ASSIGNMENT 2\DEBUG\MOVIELISTNODE.OBJ|C:\USERS\ADMINISTRATOR\DESKTOP\ASSIGNMENT 2 V16\ASSIGNMENT 2\ASSIGNMENT 2\DEBUG\VIDEOSTOREMANAGEMENT.OBJ
C:\PROGRAM FILES (X86)\MICROSOFT SDKS\WINDOWS\V7.0A\LIB\KERNEL32.LIB
C:\PROGRAM FILES (X86)\MICROSOFT SDKS\WINDOWS\V7.0A\LIB\USER32.LIB
C:\PROGRAM FILES (X86)\MICROSOFT SDKS\WINDOWS\V7.0A\LIB\GDI32.LIB
C:\PROGRAM FILES (X86)\MICROSOFT SDKS\WINDOWS\V7.0A\LIB\WINSPOOL.LIB
C:\PROGRAM FILES (X86)\MICROSOFT SDKS\WINDOWS\V7.0A\LIB\COMDLG32.LIB
C:\PROGRAM FILES (X86)\MICROSOFT SDKS\WINDOWS\V7.0A\LIB\ADVAPI32.LIB
C:\PROGRAM FILES (X86)\MICROSOFT SDKS\WINDOWS\V7.0A\LIB\SHELL32.LIB
C:\PROGRAM FILES (X86)\MICROSOFT SDKS\WINDOWS\V7.0A\LIB\OLE32.LIB
C:\PROGRAM FILES (X86)\MICROSOFT SDKS\WINDOWS\V7.0A\LIB\OLEAUT32.LIB
C:\PROGRAM FILES (X86)\MICROSOFT SDKS\WINDOWS\V7.0A\LIB\UUID.LIB
C:\PROGRAM FILES (X86)\MICROSOFT SDKS\WINDOWS\V7.0A\LIB\ODBC32.LIB
C:\PROGRAM FILES (X86)\MICROSOFT SDKS\WINDOWS\V7.0A\LIB\ODBCCP32.LIB
C:\USERS\ADMINISTRATOR\DESKTOP\ASSIGNMENT 2 V16\ASSIGNMENT 2\ASSIGNMENT 2\DEBUG\ASSIGNMENT 2.EXE.EMBED.MANIFEST.RES
C:\USERS\ADMINISTRATOR\DESKTOP\ASSIGNMENT 2 V16\ASSIGNMENT 2\ASSIGNMENT 2\DEBUG\CUSTOMER.OBJ
C:\USERS\ADMINISTRATOR\DESKTOP\ASSIGNMENT 2 V16\ASSIGNMENT 2\ASSIGNMENT 2\DEBUG\CUSTOMERCOLLECTION.OBJ
C:\USERS\ADMINISTRATOR\DESKTOP\ASSIGNMENT 2 V16\ASSIGNMENT 2\ASSIGNMENT 2\DEBUG\CUSTOMERCOLLECTIONNODE.OBJ
C:\USERS\ADMINISTRATOR\DESKTOP\ASSIGNMENT 2 V16\ASSIGNMENT 2\ASSIGNMENT 2\DEBUG\MOVIE.OBJ
C:\USERS\ADMINISTRATOR\DESKTOP\ASSIGNMENT 2 V16\ASSIGNMENT 2\ASSIGNMENT 2\DEBUG\MOVIECOLLECTION.OBJ
C:\USERS\ADMINISTRATOR\DESKTOP\ASSIGNMENT 2 V16\ASSIGNMENT 2\ASSIGNMENT 2\DEBUG\MOVIECOLLECTIONNODE.OBJ
C:\USERS\ADMINISTRATOR\DESKTOP\ASSIGNMENT 2 V16\ASSIGNMENT 2\ASSIGNMENT 2\DEBUG\MOVIELIST.OBJ
C:\USERS\ADMINISTRATOR\DESKTOP\ASSIGNMENT 2 V16\ASSIGNMENT 2\ASSIGNMENT 2\DEBUG\MOVIELISTNODE.OBJ
C:\USERS\ADMINISTRATOR\DESKTOP\ASSIGNMENT 2 V16\ASSIGNMENT 2\ASSIGNMENT 2\DEBUG\VIDEOSTOREMANAGEMENT.OBJ
C:\WINDOWS\SYSTEM32\TZRES.DLL
C:\USERS\ADMINISTRATOR\DESKTOP\ASSIGNMENT 2 V16\ASSIGNMENT 2\DEBUG\ASSIGNMENT 2.EXE
C:\USERS\ADMINISTRATOR\DESKTOP\ASSIGNMENT 2 V16\ASSIGNMENT 2\DEBUG\ASSIGNMENT 2.PDB
C:\WINDOWS\GLOBALIZATION\SORTING\SORTDEFAULT.NLS
C:\PROGRAM FILES (X86)\MICROSOFT VISUAL STUDIO 10.0\VC\LIB\MSVCPRTD.LIB
C:\PROGRAM FILES (X86)\MICROSOFT VISUAL STUDIO 10.0\VC\LIB\MSVCRTD.LIB
C:\PROGRAM FILES (X86)\MICROSOFT VISUAL STUDIO 10.0\VC\LIB\OLDNAMES.LIB
C:\PROGRAM FILES (X86)\MICROSOFT VISUAL STUDIO 10.0\VC\BIN\LINK.EXE
C:\WINDOWS\SYSTEM32\RSAENH.DLL
C:\PROGRAM FILES (X86)\MICROSOFT VISUAL STUDIO 10.0\VC\BIN\CVTRES.EXE
^C:\UNI STUFF\[SEM3\INB371\ASSIGNMENT 2\ASSIGNMENT 2\DEBUG\ASSIGNMENT 2.EXE.EMBED.MANIFEST.RES|C:\UNI STUFF\[SEM3\INB371\ASSIGNMENT 2\ASSIGNMENT 2\DEBUG\CUSTOMER.OBJ|C:\UNI STUFF\[SEM3\INB371\ASSIGNMENT 2\ASSIGNMENT 2\DEBUG\CUSTOMERCOLLECTION.OBJ|C:\UNI STUFF\[SEM3\INB371\ASSIGNMENT 2\ASSIGNMENT 2\DEBUG\CUSTOMERCOLLECTIONNODE.OBJ|C:\UNI STUFF\[SEM3\INB371\ASSIGNMENT 2\ASSIGNMENT 2\DEBUG\MOVIE.OBJ|C:\UNI STUFF\[SEM3\INB371\ASSIGNMENT 2\ASSIGNMENT 2\DEBUG\MOVIECOLLECTION.OBJ|C:\UNI STUFF\[SEM3\INB371\ASSIGNMENT 2\ASSIGNMENT 2\DEBUG\MOVIECOLLECTIONNODE.OBJ|C:\UNI STUFF\[SEM3\INB371\ASSIGNMENT 2\ASSIGNMENT 2\DEBUG\MOVIELIST.OBJ|C:\UNI STUFF\[SEM3\INB371\ASSIGNMENT 2\ASSIGNMENT 2\DEBUG\MOVIELISTNODE.OBJ|C:\UNI STUFF\[SEM3\INB371\ASSIGNMENT 2\ASSIGNMENT 2\DEBUG\VIDEOSTOREMANAGEMENT.OBJ
C:\PROGRAM FILES (X86)\MICROSOFT SDKS\WINDOWS\V7.0A\LIB\KERNEL32.LIB
C:\PROGRAM FILES (X86)\MICROSOFT SDKS\WINDOWS\V7.0A\LIB\USER32.LIB
C:\PROGRAM FILES (X86)\MICROSOFT SDKS\WINDOWS\V7.0A\LIB\GDI32.LIB
C:\PROGRAM FILES (X86)\MICROSOFT SDKS\WINDOWS\V7.0A\LIB\WINSPOOL.LIB
C:\PROGRAM FILES (X86)\MICROSOFT SDKS\WINDOWS\V7.0A\LIB\COMDLG32.LIB
C:\PROGRAM FILES (X86)\MICROSOFT SDKS\WINDOWS\V7.0A\LIB\ADVAPI32.LIB
C:\PROGRAM FILES (X86)\MICROSOFT SDKS\WINDOWS\V7.0A\LIB\SHELL32.LIB
C:\PROGRAM FILES (X86)\MICROSOFT SDKS\WINDOWS\V7.0A\LIB\OLE32.LIB
C:\PROGRAM FILES (X86)\MICROSOFT SDKS\WINDOWS\V7.0A\LIB\OLEAUT32.LIB
C:\PROGRAM FILES (X86)\MICROSOFT SDKS\WINDOWS\V7.0A\LIB\UUID.LIB
C:\PROGRAM FILES (X86)\MICROSOFT SDKS\WINDOWS\V7.0A\LIB\ODBC32.LIB
C:\PROGRAM FILES (X86)\MICROSOFT SDKS\WINDOWS\V7.0A\LIB\ODBCCP32.LIB
C:\UNI STUFF\[SEM3\INB371\ASSIGNMENT 2\ASSIGNMENT 2\DEBUG\ASSIGNMENT 2.EXE.EMBED.MANIFEST.RES
C:\UNI STUFF\[SEM3\INB371\ASSIGNMENT 2\ASSIGNMENT 2\DEBUG\CUSTOMER.OBJ
C:\UNI STUFF\[SEM3\INB371\ASSIGNMENT 2\ASSIGNMENT 2\DEBUG\CUSTOMERCOLLECTION.OBJ
C:\UNI STUFF\[SEM3\INB371\ASSIGNMENT 2\ASSIGNMENT 2\DEBUG\CUSTOMERCOLLECTIONNODE.OBJ
C:\UNI STUFF\[SEM3\INB371\ASSIGNMENT 2\ASSIGNMENT 2\DEBUG\MOVIE.OBJ
C:\UNI STUFF\[SEM3\INB371\ASSIGNMENT 2\ASSIGNMENT 2\DEBUG\MOVIECOLLECTION.OBJ
C:\UNI STUFF\[SEM3\INB371\ASSIGNMENT 2\ASSIGNMENT 2\DEBUG\MOVIECOLLECTIONNODE.OBJ
C:\UNI STUFF\[SEM3\INB371\ASSIGNMENT 2\ASSIGNMENT 2\DEBUG\MOVIELIST.OBJ
C:\UNI STUFF\[SEM3\INB371\ASSIGNMENT 2\ASSIGNMENT 2\DEBUG\MOVIELISTNODE.OBJ
C:\UNI STUFF\[SEM3\INB371\ASSIGNMENT 2\ASSIGNMENT 2\DEBUG\VIDEOSTOREMANAGEMENT.OBJ
C:\WINDOWS\SYSTEM32\TZRES.DLL
C:\UNI STUFF\[SEM3\INB371\ASSIGNMENT 2\DEBUG\ASSIGNMENT 2.EXE
C:\UNI STUFF\[SEM3\INB371\ASSIGNMENT 2\DEBUG\ASSIGNMENT 2.PDB
C:\WINDOWS\GLOBALIZATION\SORTING\SORTDEFAULT.NLS
C:\PROGRAM FILES (X86)\MICROSOFT VISUAL STUDIO 10.0\VC\LIB\MSVCPRTD.LIB
C:\PROGRAM FILES (X86)\MICROSOFT VISUAL STUDIO 10.0\VC\LIB\MSVCRTD.LIB
C:\PROGRAM FILES (X86)\MICROSOFT VISUAL STUDIO 10.0\VC\LIB\OLDNAMES.LIB
