^C:\UNI STUFF\[SEM3\INB371\ASSIGNMENT 2\ASSIGNMENT 2\DEBUG\ASSIGNMENT 2.EXE.INTERMEDIATE.MANIFEST
C:\UNI STUFF\[SEM3\INB371\ASSIGNMENT 2\ASSIGNMENT 2\DEBUG\ASSIGNMENT 2.EXE.EMBED.MANIFEST
^C:\USERS\HAYDN\DOCUMENTS\INB371\ASSIGNMENT2\ASSIGNMENT 2 TEMPS\ASSIGNMENT 2\ASSIGNMENT 2\DEBUG\ASSIGNMENT 2.EXE.INTERMEDIATE.MANIFEST
C:\PROGRAMDATA\NVIDIA CORPORATION\DRS\NVDRSDB1.BIN
C:\WINDOWS\GLOBALIZATION\SORTING\SORTDEFAULT.NLS
C:\USERS\HAYDN\DOCUMENTS\INB371\ASSIGNMENT2\ASSIGNMENT 2 TEMPS\ASSIGNMENT 2\ASSIGNMENT 2\DEBUG\ASSIGNMENT 2.EXE.EMBED.MANIFEST
^C:\USERS\HAYDN\DOCUMENTS\INB371\ASSIGNMENT2\V12\ASSIGNMENT 2\ASSIGNMENT 2\DEBUG\ASSIGNMENT 2.EXE.INTERMEDIATE.MANIFEST
C:\PROGRAMDATA\NVIDIA CORPORATION\DRS\NVDRSDB1.BIN
C:\WINDOWS\GLOBALIZATION\SORTING\SORTDEFAULT.NLS
C:\USERS\HAYDN\DOCUMENTS\INB371\ASSIGNMENT2\V12\ASSIGNMENT 2\ASSIGNMENT 2\DEBUG\ASSIGNMENT 2.EXE.EMBED.MANIFEST
^C:\USERS\HAYDN\DOCUMENTS\INB371\ASSIGNMENT2\V13\ASSIGNMENT 2\ASSIGNMENT 2\DEBUG\ASSIGNMENT 2.EXE.INTERMEDIATE.MANIFEST
C:\PROGRAMDATA\NVIDIA CORPORATION\DRS\NVDRSDB1.BIN
C:\WINDOWS\GLOBALIZATION\SORTING\SORTDEFAULT.NLS
C:\USERS\HAYDN\DOCUMENTS\INB371\ASSIGNMENT2\V13\ASSIGNMENT 2\ASSIGNMENT 2\DEBUG\ASSIGNMENT 2.EXE.EMBED.MANIFEST
^C:\USERS\HAYDN\DOCUMENTS\INB371\ASSIGNMENT2\V14\ASSIGNMENT 2\ASSIGNMENT 2\DEBUG\ASSIGNMENT 2.EXE.INTERMEDIATE.MANIFEST
C:\PROGRAMDATA\NVIDIA CORPORATION\DRS\NVDRSDB1.BIN
C:\WINDOWS\GLOBALIZATION\SORTING\SORTDEFAULT.NLS
C:\USERS\HAYDN\DOCUMENTS\INB371\ASSIGNMENT2\V14\ASSIGNMENT 2\ASSIGNMENT 2\DEBUG\ASSIGNMENT 2.EXE.EMBED.MANIFEST
^C:\USERS\ADMINISTRATOR\DESKTOP\ASSIGNMENT 2 V16\ASSIGNMENT 2\ASSIGNMENT 2\DEBUG\ASSIGNMENT 2.EXE.INTERMEDIATE.MANIFEST
C:\USERS\ADMINISTRATOR\DESKTOP\ASSIGNMENT 2 V16\ASSIGNMENT 2\ASSIGNMENT 2\DEBUG\ASSIGNMENT 2.EXE.EMBED.MANIFEST
